<?xml version="1.0" encoding="UTF-8" standalone="no"?>
<svg
   xmlns:dc="http://purl.org/dc/elements/1.1/"
   xmlns:cc="http://creativecommons.org/ns#"
   xmlns:rdf="http://www.w3.org/1999/02/22-rdf-syntax-ns#"
   xmlns:svg="http://www.w3.org/2000/svg"
   xmlns="http://www.w3.org/2000/svg"
   width="24mm"
   height="24mm"
   viewBox="0 0 24 24"
   version="1.1"
   id="svg8">
  <defs
     id="defs2" />
  <metadata
     id="metadata5">
    <rdf:RDF>
      <cc:Work
         rdf:about="">
        <dc:format>image/svg+xml</dc:format>
        <dc:type
           rdf:resource="http://purl.org/dc/dcmitype/StillImage" />
        <dc:title></dc:title>
      </cc:Work>
    </rdf:RDF>
  </metadata>
  <g
     id="layer1">
    <g
       id="g873"
       style="fill-rule:evenodd">
      <path
         style="fill:#38b6d4;fill-opacity:1;stroke:none;stroke-width:0.264583px;stroke-linecap:butt;stroke-linejoin:miter;stroke-opacity:1;fill-rule:evenodd"
         d="M 0,3.32428e-7 V 4.0000004 L 3.9999999,3.32428e-7 Z"
         id="path861" />
      <path
         style="fill:#e3d27d;fill-opacity:1;stroke:none;stroke-width:0.264583px;stroke-linecap:butt;stroke-linejoin:miter;stroke-opacity:1;fill-rule:evenodd"
         d="M 3.9999999,3.32428e-7 23.999999,20 0,4.0000004 Z"
         id="path863" />
      <path
         style="fill:#977de3;fill-opacity:1;stroke:none;stroke-width:0.264583px;stroke-linecap:butt;stroke-linejoin:miter;stroke-opacity:1;fill-rule:evenodd"
         d="M 23.999999,20 20,24 0,4.0000004 Z"
         id="path865" />
      <path
         style="fill:#9be37d;fill-opacity:1;stroke:none;stroke-width:0.264583px;stroke-linecap:butt;stroke-linejoin:miter;stroke-opacity:1;fill-rule:evenodd"
         d="m 23.999999,20 -4,4 h 4 z"
         id="path867" />
    </g>
    <g
       id="g896"
       style="fill-rule:evenodd">
      <path
         style="fill:#93baac;fill-opacity:1;stroke:none;stroke-width:0.264583px;stroke-linecap:butt;stroke-linejoin:miter;stroke-opacity:1;fill-rule:evenodd"
         d="m 19.999999,3.32428e-7 4,4.000000067572 V 3.32428e-7 Z"
         id="path876" />
      <path
         style="fill:#d15858;fill-opacity:1;stroke:none;stroke-width:0.264583px;stroke-linecap:butt;stroke-linejoin:miter;stroke-opacity:1;fill-rule:evenodd"
         d="M 19.999999,3.32428e-7 0,20 23.999999,4.0000004 Z"
         id="path878" />
      <path
         style="fill:#a5d158;fill-opacity:1;stroke:none;stroke-width:0.264583px;stroke-linecap:butt;stroke-linejoin:miter;stroke-opacity:1;fill-rule:evenodd"
         d="M 0,20 3.9999999,24 23.999999,4.0000004 Z"
         id="path888" />
      <path
         style="fill:#d158bd;stroke:none;stroke-width:0.264583px;stroke-linecap:butt;stroke-linejoin:miter;stroke-opacity:1;fill-opacity:1;fill-rule:evenodd"
         d="m 0,20 v 4 h 3.9999999 z"
         id="path890" />
    </g>
  </g>
</svg>
